\babel@toc {english}{}
\contentsline {chapter}{\numberline {1}Contents}{3}{chapter.1}
\contentsline {section}{\numberline {1.1}EV3}{3}{section.1.1}
\contentsline {section}{\numberline {1.2}Motor}{7}{section.1.2}
\contentsline {section}{\numberline {1.3}Sensor}{11}{section.1.3}
\contentsline {section}{\numberline {1.4}hidapi}{16}{section.1.4}
\contentsline {section}{\numberline {1.5}usbBrickIO}{20}{section.1.5}
\contentsline {section}{\numberline {1.6}btBrickIO}{21}{section.1.6}
\contentsline {chapter}{MATLAB Module Index}{25}{section*.104}
\contentsline {chapter}{Index}{27}{section*.105}
