\BOOKMARK [0][-]{chapter.1}{\376\377\000C\000o\000n\000t\000e\000n\000t\000s}{}% 1
\BOOKMARK [1][-]{section.1.1}{\376\377\000E\000V\0003}{chapter.1}% 2
\BOOKMARK [1][-]{section.1.2}{\376\377\000M\000o\000t\000o\000r}{chapter.1}% 3
\BOOKMARK [1][-]{section.1.3}{\376\377\000S\000e\000n\000s\000o\000r}{chapter.1}% 4
\BOOKMARK [1][-]{section.1.4}{\376\377\000h\000i\000d\000a\000p\000i}{chapter.1}% 5
\BOOKMARK [1][-]{section.1.5}{\376\377\000u\000s\000b\000B\000r\000i\000c\000k\000I\000O}{chapter.1}% 6
\BOOKMARK [1][-]{section.1.6}{\376\377\000b\000t\000B\000r\000i\000c\000k\000I\000O}{chapter.1}% 7
\BOOKMARK [0][-]{section*.104}{\376\377\000M\000A\000T\000L\000A\000B\000\040\000M\000o\000d\000u\000l\000e\000\040\000I\000n\000d\000e\000x}{}% 8
\BOOKMARK [0][-]{section*.105}{\376\377\000I\000n\000d\000e\000x}{}% 9
